[
  {
    "server_role": {
      "master":true,
      "global":true,
      "log":true
    },
    "ip_addr": "1.1.1.1",
    "ssh_port": "22",
    "ssh_user": "root",
    "ssh_passwd": "",
    "ssh_key_file": "/root/.ssh/id_rsa"
  },
  {
    "server_role": {
      "master":true,
      "global":true,
      "log":true
    },
    "ip_addr": "2.2.2.2",
    "ssh_port": "22",
    "ssh_user": "root",
    "ssh_passwd": "",
    "ssh_key_file": "/root/.ssh/id_rsa"
  },
  {
    "server_role": {
      "master":true,
      "global":true,
      "log":true
    },
    "ip_addr": "3.3.3.3",
    "ssh_port": "22",
    "ssh_user": "root",
    "ssh_passwd": "",
    "ssh_key_file": "/root/.ssh/id_rsa"
  }
]
